source_filename = "test"
target datalayout = "e-p:32:32-f64:32:64-f80:32-n8:16:32-S128"

@zf = internal unnamed_addr global i1 false
@df = internal unnamed_addr global i1 false
@eax = internal unnamed_addr global i32 0
@ecx = internal unnamed_addr global i32 0
@edx = internal unnamed_addr global i32 0
@ebx = internal unnamed_addr global i32 0
@esp = internal unnamed_addr global i32 0
@ebp = internal unnamed_addr global i32 0
@esi = internal unnamed_addr global i32 0
@edi = internal unnamed_addr global i32 0
@global_var_4dc8d8.537 = constant [21 x i16] %wide-string
@global_var_4dc330.598 = constant [8 x i8] c"generic\00"
@global_var_4dc370.599 = constant [9 x i8] c"iostream\00"
@global_var_4dc3bc.600 = constant [7 x i8] c"system\00"
@global_var_4dc0d8.602 = constant [8 x i8] c"dwm.exe\00"
@global_var_4dc0e4.603 = constant [17 x i8] c"win-firewall.exe\00"
@global_var_4dc0fc.604 = constant [15 x i8] c"adobeflash.exe\00"
@global_var_4dc110.605 = constant [12 x i8] c"desktop.exe\00"
@global_var_4dc120.606 = constant [12 x i8] c"jucheck.exe\00"
@global_var_4dc130.607 = constant [12 x i8] c"jusched.exe\00"
@global_var_4dc144.608 = constant [9 x i8] c"java.exe\00"
@global_var_4dca7c.622 = constant [13 x i8] c"explorer.exe\00"
@global_var_4dcad4.727 = constant [11 x i8] c"chrome.exe\00"
@global_var_4dcae4.728 = constant [12 x i8] c"firefox.exe\00"
@global_var_4dcaf4.729 = constant [13 x i8] c"iexplore.exe\00"
@global_var_4dcb04.730 = constant [12 x i8] c"svchost.exe\00"
@global_var_4dcb14.731 = constant [9 x i8] c"smss.exe\00"
@global_var_4dcb20.732 = constant [10 x i8] c"csrss.exe\00"
@global_var_4dcb2c.733 = constant [12 x i8] c"wininit.exe\00"
@global_var_4dcb3c.734 = constant [10 x i8] c"steam.exe\00"
@global_var_4dcb48.735 = constant [11 x i8] c"devenv.exe\00"
@global_var_4dcb58.736 = constant [16 x i8] c"thunderbird.exe\00"
@global_var_4dcb6c.737 = constant [10 x i8] c"skype.exe\00"
@global_var_4dcb78.738 = constant [11 x i8] c"pidgin.exe\00"
@global_var_4dcb88.739 = constant [13 x i8] c"services.exe\00"
@global_var_4dcb98.740 = constant [12 x i8] c"dllhost.exe\00"
@global_var_4dcba8.741 = constant [10 x i8] c"lsass.exe\00"
@global_var_4dcbb4.742 = constant [13 x i8] c"winlogon.exe\00"
@global_var_4dcbc4.743 = constant [8 x i8] c"alg.exe\00"
@global_var_4dcbd0.744 = constant [12 x i8] c"wscntfy.exe\00"
@global_var_4dcbe0.745 = constant [12 x i8] c"taskmgr.exe\00"
@global_var_4dcbf0.746 = constant [12 x i8] c"spoolsv.exe\00"
@global_var_4dcc00.747 = constant [8 x i8] c"QML.exe\00"
@global_var_4dcc0c.748 = constant [8 x i8] c"AKW.exe\00"
@global_var_4df118.808 = constant [18 x i8] c"bad function call\00"
@global_var_4e6104.866 = constant [7 x i8] c"(null)\00"
@global_var_4e610c.867 = constant [7 x i16] %wide-string
@global_var_4ec850.942 = constant [3 x i8] c"[]\00"
@global_var_4ec7b8.951 = constant [11 x i8] c"__thiscall\00"
@global_var_4ec7c8.952 = constant [11 x i8] c"__fastcall\00"
@global_var_4ec7d8.953 = constant [10 x i8] c"__clrcall\00"
@global_var_4ec7e4.954 = constant [7 x i8] c"__eabi\00"
@global_var_4ec7ec.955 = constant [8 x i8] c"__ptr64\00"
@global_var_4ec7f8.956 = constant [11 x i8] c"__restrict\00"
@global_var_4ec808.957 = constant [12 x i8] c"__unaligned\00"
@global_var_4ec818.958 = constant [10 x i8] c"restrict(\00"
@global_var_4ecd78.959 = constant [18 x i8] c" Type Descriptor'\00"
@global_var_4ecd90.960 = constant [28 x i8] c" Base Class Descriptor at (\00"
@global_var_4ecdb4.961 = constant [19 x i8] c" Base Class Array'\00"
@global_var_4ecdcc.962 = constant [29 x i8] c" Class Hierarchy Descriptor'\00"
@global_var_4ecdf0.963 = constant [26 x i8] c" Complete Object Locator'\00"
@global_var_4ec824.964 = constant [5 x i8] c" new\00"
@global_var_4ec82c.965 = constant [8 x i8] c" delete\00"
@global_var_4ec838.966 = constant i32 61
@global_var_4ec83c.967 = constant [3 x i8] c">>\00"
@global_var_4ec840.968 = constant [3 x i8] c"<<\00"
@global_var_4ec844.969 = constant i32 33
@global_var_4ec848.970 = constant [3 x i8] c"==\00"
@global_var_4ec84c.971 = constant [3 x i8] c"!=\00"
@global_var_4ec854.972 = constant [9 x i8] c"operator\00"
@global_var_4ec860.973 = constant [3 x i8] c"->\00"
@global_var_4ec864.974 = constant i32 42
@global_var_4ec868.975 = constant [3 x i8] c"++\00"
@global_var_4ec86c.976 = constant [3 x i8] c"--\00"
@global_var_4ec870.977 = constant i32 45
@global_var_4ec874.978 = constant i32 43
@global_var_4ec878.979 = constant i32 38
@global_var_4ec87c.980 = constant [4 x i8] c"->*\00"
@global_var_4ec880.981 = constant i32 47
@global_var_4ec884.982 = constant i32 37
@global_var_4ec888.983 = constant i32 60
@global_var_4ec88c.984 = constant [3 x i8] c"<=\00"
@global_var_4ec890.985 = constant i32 62
@global_var_4ec894.986 = constant [3 x i8] c">=\00"
@global_var_4ec898.987 = constant i32 44
@global_var_4ec89c.988 = constant [3 x i8] c"()\00"
@global_var_4ec8a0.989 = constant i32 126
@global_var_4ec8a4.990 = constant i32 94
@global_var_4ec8a8.991 = constant i32 124
@global_var_4ec8ac.992 = constant [3 x i8] c"&&\00"
@global_var_4ec8b0.993 = constant [3 x i8] c"||\00"
@global_var_4ec8b4.994 = constant [3 x i8] c"*=\00"
@global_var_4ec8b8.995 = constant [3 x i8] c"+=\00"
@global_var_4ec8bc.996 = constant [3 x i8] c"-=\00"
@global_var_4ec8c0.997 = constant [3 x i8] c"/=\00"
@global_var_4ec8c4.998 = constant [3 x i8] c"%=\00"
@global_var_4ec8c8.999 = constant [4 x i8] c">>=\00"
@global_var_4ec8cc.1000 = constant [4 x i8] c"<<=\00"
@global_var_4ec8d0.1001 = constant [3 x i8] c"&=\00"
@global_var_4ec8d4.1002 = constant [3 x i8] c"|=\00"
@global_var_4ec8d8.1003 = constant [3 x i8] c"^=\00"
@global_var_4ec8dc.1004 = constant [10 x i8] c"`vftable'\00"
@global_var_4ec8e8.1005 = constant [10 x i8] c"`vbtable'\00"
@global_var_4ec8f4.1006 = constant [8 x i8] c"`vcall'\00"
@global_var_4ec900.1007 = constant [9 x i8] c"`typeof'\00"
@global_var_4ec90c.1008 = constant [21 x i8] c"`local static guard'\00"
@global_var_4ec928.1009 = constant [9 x i8] c"`string'\00"
@global_var_4ec934.1010 = constant [19 x i8] c"`vbase destructor'\00"
@global_var_4ec94c.1011 = constant [29 x i8] c"`vector deleting destructor'\00"
@global_var_4ec970.1012 = constant [30 x i8] c"`default constructor closure'\00"
@global_var_4ec994.1013 = constant [29 x i8] c"`scalar deleting destructor'\00"
@global_var_4ec9b8.1014 = constant [30 x i8] c"`vector constructor iterator'\00"
@global_var_4ec9dc.1015 = constant [29 x i8] c"`vector destructor iterator'\00"
@global_var_4eca00.1016 = constant [36 x i8] c"`vector vbase constructor iterator'\00"
@global_var_4eca2c.1017 = constant [27 x i8] c"`virtual displacement map'\00"
@global_var_4eca4c.1018 = constant [33 x i8] c"`eh vector constructor iterator'\00"
@global_var_4eca74.1019 = constant [32 x i8] c"`eh vector destructor iterator'\00"
@global_var_4eca9c.1020 = constant [39 x i8] c"`eh vector vbase constructor iterator'\00"
@global_var_4ecacc.1021 = constant [27 x i8] c"`copy constructor closure'\00"
@global_var_4ecaec.1022 = constant [16 x i8] c"`udt returning'\00"
@global_var_4ecb00.1023 = constant i32 4736352
@global_var_4ecb04.1024 = constant [6 x i8] c"`RTTI\00"
@global_var_4ecb0c.1025 = constant [16 x i8] c"`local vftable'\00"
@global_var_4ecb20.1026 = constant [36 x i8] c"`local vftable constructor closure'\00"
@global_var_4ecb4c.1027 = constant [7 x i8] c" new[]\00"
@global_var_4ecb54.1028 = constant [10 x i8] c" delete[]\00"
@global_var_4ecb60.1029 = constant [15 x i8] c"`omni callsig'\00"
@global_var_4ecb74.1030 = constant [27 x i8] c"`placement delete closure'\00"
@global_var_4ecb94.1031 = constant [29 x i8] c"`placement delete[] closure'\00"
@global_var_4ecbb8.1032 = constant [38 x i8] c"`managed vector constructor iterator'\00"
@global_var_4ecbe8.1033 = constant [37 x i8] c"`managed vector destructor iterator'\00"
@global_var_4ecc14.1034 = constant [38 x i8] c"`eh vector copy constructor iterator'\00"
@global_var_4ecc44.1035 = constant [44 x i8] c"`eh vector vbase copy constructor iterator'\00"
@global_var_4ecc78.1036 = constant [27 x i8] c"`dynamic initializer for '\00"
@global_var_4ecc98.1037 = constant [33 x i8] c"`dynamic atexit destructor for '\00"
@global_var_4eccc0.1038 = constant [35 x i8] c"`vector copy constructor iterator'\00"
@global_var_4eccec.1039 = constant [41 x i8] c"`vector vbase copy constructor iterator'\00"
@global_var_4ecd20.1040 = constant [43 x i8] c"`managed vector copy constructor iterator'\00"
@global_var_4ecd54.1041 = constant [28 x i8] c"`local static thread guard'\00"
@0 = external global i32
@global_var_4dc2e4.539 = external constant i8*
@1 = internal constant [2 x i8] c"v\00"
@global_var_4f94c8.834 = global i1 true

define i32 @function_447091() {
dec_label_pc_447091:
  %v0_447091 = call i32 @function_4b52f0()
  ret i32 %v0_447091
}

define i32 @function_44715e() {
dec_label_pc_44715e:
  %v2_44715e = call i32 @function_4537c0(i32 ptrtoint (i32* @0 to i32), i32 ptrtoint (i32* @0 to i32))
  ret i32 %v2_44715e
}

define i32 @function_4472ee() {
dec_label_pc_4472ee:
  %v0_4472ee = call i32 @"??_G?$ISource@I@Concurrency@@UAEPAXI@Z.39"()
  ret i32 %v0_4472ee
}

define i32 @function_447375() {
dec_label_pc_447375:
  %v0_447375 = call i32 @"??_G?$ISource@I@Concurrency@@UAEPAXI@Z.19"()
  ret i32 %v0_447375
}

define i32 @function_4473cf() {
dec_label_pc_4473cf:
  %v0_4473cf = call i32 @"??_G?$ISource@I@Concurrency@@UAEPAXI@Z"()
  ret i32 %v0_4473cf
}

define i32 @function_447569() {
dec_label_pc_447569:
  %v0_447569 = call i32 @"?getString@DNameStatusNode@@UBEPADPAD0@Z"()
  ret i32 %v0_447569
}

define i32 @function_4475e6() {
dec_label_pc_4475e6:
  %v0_4475e6 = call i32 @"??_G?$ISource@I@Concurrency@@UAEPAXI@Z.18"()
  ret i32 %v0_4475e6
}

define i32 @function_44764f() {
dec_label_pc_44764f:
  %v0_44764f = call i32 @"?getLastChar@DNameStatusNode@@UBEDXZ"()
  ret i32 %v0_44764f
}

define i32 @function_447659() {
dec_label_pc_447659:
  %v2_447659 = call i32 @function_452010(i32 ptrtoint (i32* @0 to i32), i32 ptrtoint (i32* @0 to i32))
  ret i32 %v2_447659
}

define i32 @function_44776c() {
dec_label_pc_44776c:
  %v0_44776c = call i32 @"?getLastChar@pairNode@@UBEDXZ"()
  ret i32 %v0_44776c
}

define i32 @function_4477cb() {
dec_label_pc_4477cb:
  %v0_4477cb = call i32 @function_453a40()
  ret i32 %v0_4477cb
}

define i32 @function_4477ee() {
dec_label_pc_4477ee:
  %v0_4477ee = call i32 @"??_G?$ISource@I@Concurrency@@UAEPAXI@Z.16"()
  ret i32 %v0_4477ee
}

define i32 @function_447884() {
dec_label_pc_447884:
  %v1_447884 = call i32 @function_44f060(i32 ptrtoint (i32* @0 to i32))
  ret i32 %v1_447884
}

define i32 @function_44788e() {
dec_label_pc_44788e:
  %v0_44788e = call i32 @"??_G?$ISource@I@Concurrency@@UAEPAXI@Z.13"()
  ret i32 %v0_44788e
}

define i32 @function_447938() {
dec_label_pc_447938:
  %v2_447938 = call i32 @function_451f70(i32 ptrtoint (i32* @0 to i32), i32 ptrtoint (i32* @0 to i32))
  ret i32 %v2_447938
}

define i32 @function_447a0a() {
dec_label_pc_447a0a:
  %v0_447a0a = call i32 @"??_G?$ISource@I@Concurrency@@UAEPAXI@Z.29"()
  ret i32 %v0_447a0a
}

define i32 @function_447d61() {
dec_label_pc_447d61:
  %v0_447d61 = call i32 @"??_G?$ISource@I@Concurrency@@UAEPAXI@Z.40"()
  ret i32 %v0_447d61
}

define i32 @function_447ed8() {
dec_label_pc_447ed8:
  %v2_447ed8 = call i32 @function_451b00(i32 ptrtoint (i32* @0 to i32), i32 ptrtoint (i32* @0 to i32))
  ret i32 %v2_447ed8
}

define i32 @function_447fdc() {
dec_label_pc_447fdc:
  %v0_447fdc = call i32 @"?length@pDNameNode@@UBEHXZ"()
  ret i32 %v0_447fdc
}

define i32 @function_448013() {
dec_label_pc_448013:
  %v0_448013 = call i32 @"??_GIThreadProxyFactory@details@Concurrency@@UAEPAXI@Z"()
  ret i32 %v0_448013
}

define i32 @function_4480c2() {
dec_label_pc_4480c2:
  %v0_4480c2 = call i32 @"??_G?$ISource@I@Concurrency@@UAEPAXI@Z.14"()
  ret i32 %v0_4480c2
}

define i32 @function_448144() {
dec_label_pc_448144:
  %v0_448144 = call i32 @function_4b9d10()
  ret i32 %v0_448144
}

define i32 @function_4482ac() {
dec_label_pc_4482ac:
  %v0_4482ac = call i32 @"?length@pairNode@@UBEHXZ"()
  ret i32 %v0_4482ac
}

define i32 @function_448374() {
dec_label_pc_448374:
  %v1_448374 = call i32 @function_44f0d0(i32 ptrtoint (i32* @0 to i32))
  ret i32 %v1_448374
}

define i32 @function_448491() {
dec_label_pc_448491:
  %v0_448491 = call i32 @function_453a00()
  ret i32 %v0_448491
}

define i32 @function_44853b() {
dec_label_pc_44853b:
  %v2_44853b = call i32 @function_451ba0(i32 ptrtoint (i32* @0 to i32), i32 ptrtoint (i32* @0 to i32))
  ret i32 %v2_44853b
}

define i32 @function_4485a9() local_unnamed_addr {
dec_label_pc_4485a9:
  %v1_4485a9 = call i32 @function_478030(i32 ptrtoint (i32* @0 to i32))
  ret i32 %v1_4485a9
}

define i32 @function_448617() {
dec_label_pc_448617:
  %v2_448617 = call i32 @function_453880(i32 ptrtoint (i32* @0 to i32), i32 ptrtoint (i32* @0 to i32))
  ret i32 %v2_448617
}

define i32 @function_4486e4() {
dec_label_pc_4486e4:
  %v0_4486e4 = call i32 @"?getString@charNode@@UBEPADPAD0@Z"()
  ret i32 %v0_4486e4
}

define i32 @function_4487f2() {
dec_label_pc_4487f2:
  %v0_4487f2 = call i32 @function_4701d0()
  ret i32 %v0_4487f2
}

define i32 @function_448824(i16* %arg1, i32 %arg2, i32 %arg3) local_unnamed_addr {
dec_label_pc_448824:
  %v0_448824 = call i32 @"?_Debug_message@std@@YAXPB_W0I@Z"()
  ret i32 %v0_448824
}

define i32 @function_4488d3(i32 %arg1, i32 %arg2) {
dec_label_pc_4488d3:
  %v2_4488d3 = call i32 @function_453700(i32 ptrtoint (i32* @0 to i32), i32 ptrtoint (i32* @0 to i32))
  ret i32 %v2_4488d3
}

define i32 @function_4488dd() {
dec_label_pc_4488dd:
  %v0_4488dd = call i32 @"??_G?$ISource@I@Concurrency@@UAEPAXI@Z.12"()
  ret i32 %v0_4488dd
}

define i32 @function_448b8f() {
dec_label_pc_448b8f:
  %v1_448b8f = call i32 @function_44eff0(i32 ptrtoint (i32* @0 to i32))
  ret i32 %v1_448b8f
}

define i32 @function_448dec(i32 %arg1, i32 %arg2, i32 %arg3, i32 %arg4, i32 %arg5, i32 %arg6, i32 %arg7, i32 %arg8) local_unnamed_addr {
dec_label_pc_448dec:
  %v0_448dec = call i32 @"?_RTC_Failure@@YAXPAXH@Z"()
  ret i32 %v0_448dec
}

define i32 @function_448e23() {
dec_label_pc_448e23:
  %v0_448e23 = call i32 @"?getString@pairNode@@UBEPADPAD0@Z"()
  ret i32 %v0_448e23
}

define i32 @function_448e5a() {
dec_label_pc_448e5a:
  %v0_448e5a = call i32 @function_4b9d30()
  ret i32 %v0_448e5a
}

define i32 @function_448e5f() {
dec_label_pc_448e5f:
  %v0_448e5f = call i32 @"?getString@pDNameNode@@UBEPADPAD0@Z"()
  ret i32 %v0_448e5f
}

define i32 @function_448eff() {
dec_label_pc_448eff:
  %v0_448eff = call i32 @"??_G?$ISource@I@Concurrency@@UAEPAXI@Z.15"()
  ret i32 %v0_448eff
}

define i32 @function_448f0e() {
dec_label_pc_448f0e:
  %v0_448f0e = call i32 @"?getLastChar@pDNameNode@@UBEDXZ"()
  ret i32 %v0_448f0e
}

define i32 @function_448f31() {
dec_label_pc_448f31:
  %v0_448f31 = call i32 @function_4b9df0()
  ret i32 %v0_448f31
}

define i32 @function_448f45() {
dec_label_pc_448f45:
  %v0_448f45 = call i32 @"?what@exception@std@@UBEPBDXZ"()
  ret i32 %v0_448f45
}

define i32 @function_449058() {
dec_label_pc_449058:
  %v0_449058 = call i32 @"?getString@pcharNode@@UBEPADPAD0@Z"()
  ret i32 %v0_449058
}

define i32 @function_4491a2() {
dec_label_pc_4491a2:
  %v0_4491a2 = call i32 @"?getLastChar@pcharNode@@UBEDXZ"()
  ret i32 %v0_4491a2
}

define i32 @function_4492a6() {
dec_label_pc_4492a6:
  %v0_4492a6 = call i32 @"??_G?$ISource@I@Concurrency@@UAEPAXI@Z.17"()
  ret i32 %v0_4492a6
}

define i32 @function_449391() {
dec_label_pc_449391:
  %v0_449391 = call i32 @function_4539c0()
  ret i32 %v0_449391
}

define i32 @function_449404() {
dec_label_pc_449404:
  %v0_449404 = call i32 @"??_G?$ISource@I@Concurrency@@UAEPAXI@Z.41"()
  ret i32 %v0_449404
}

define i32 @main(i32 %argc, i8** %argv) local_unnamed_addr {
dec_label_pc_44c330:
  %df.global-to-local = alloca i1, align 1
  %ebp.global-to-local = alloca i32, align 4
  %ebx.global-to-local = alloca i32, align 4
  %edi.global-to-local = alloca i32, align 4
  %esi.global-to-local = alloca i32, align 4
  %tmp241 = call i32 @__decompiler_undefined_function_0()
  %stack_var_-208 = alloca i32, align 4
  %stack_var_-196 = alloca i32, align 4
  %stack_var_-4 = alloca i32, align 4
  %v0_44c330 = load i32, i32* %ebp.global-to-local, align 4
  store i32 %v0_44c330, i32* %stack_var_-4, align 4
  %v4_44c330 = ptrtoint i32* %stack_var_-4 to i32
  store i32 %v4_44c330, i32* @ebp, align 4
  %v15_44c333 = ptrtoint i32* %stack_var_-196 to i32
  %v0_44c339 = load i32, i32* %ebx.global-to-local, align 4
  %v0_44c33a = load i32, i32* %esi.global-to-local, align 4
  %v0_44c33b = load i32, i32* %edi.global-to-local, align 4
  store i32 %v0_44c33b, i32* %stack_var_-208, align 4
  %tmp248 = bitcast i32* %stack_var_-196 to i8*
  store i32 %v15_44c333, i32* %edi.global-to-local, align 4
  store i32 -858993460, i32* @eax, align 4
  call void @__asm_rep_stosd_memset(i8* %tmp248, i32 -858993460, i32 48)
  %v5_44c34c = load i1, i1* %df.global-to-local, align 1
  %v7_44c34c = select i1 %v5_44c34c, i32 -192, i32 192
  %v8_44c34c = add i32 %v7_44c34c, %v15_44c333
  store i32 %v8_44c34c, i32* %edi.global-to-local, align 4
  %v10_44c34e = icmp eq i32 %argc, 0
  %v1_44c352 = icmp eq i1 %v10_44c34e, false
  br i1 %v1_44c352, label %dec_label_pc_44c369, label %dec_label_pc_44c354

dec_label_pc_44c354:                              ; preds = %dec_label_pc_44c330
  %v4_44c358 = ptrtoint i8** %argv to i32
  %v6_44c361 = call i32 @function_448824(i16* getelementptr inbounds ([21 x i16], [21 x i16]* @global_var_4dc8d8.537, i32 0, i32 0), i32 %v4_44c358, i32 %tmp241)
  store i32 %v6_44c361, i32* @eax, align 4
  br label %dec_label_pc_44c369

dec_label_pc_44c369:                              ; preds = %dec_label_pc_44c354, %dec_label_pc_44c330
  %v2_44c369 = load i32, i32* %stack_var_-208, align 4
  store i32 %v2_44c369, i32* @edi, align 4
  store i32 %v0_44c33a, i32* @esi, align 4
  store i32 %v0_44c339, i32* @ebx, align 4
  %v0_44c372 = load i32, i32* @ebp, align 4
  %v12_44c372 = icmp eq i32 %v0_44c372, %v4_44c330
  store i1 %v12_44c372, i1* @zf, align 1
  %v0_44c374 = call i32 @function_4485a9()
  %v2_44c37b = load i32, i32* %stack_var_-4, align 4
  store i32 %v2_44c37b, i32* %ebp.global-to-local, align 4
  ret i32 %v0_44c374
}

define i32 @function_44eff0(i32 %arg1) local_unnamed_addr {
dec_label_pc_44eff0:
  %stack_var_-208 = alloca i32, align 4
  %tmp13 = bitcast i32* %stack_var_-208 to i8*
  call void @__asm_rep_stosd_memset(i8* %tmp13, i32 -858993460, i32 51)
  unreachable
}

define i32 @function_44f060(i32 %arg1) local_unnamed_addr {
dec_label_pc_44f060:
  %stack_var_-208 = alloca i32, align 4
  %tmp13 = bitcast i32* %stack_var_-208 to i8*
  call void @__asm_rep_stosd_memset(i8* %tmp13, i32 -858993460, i32 51)
  unreachable
}

define i32 @function_44f0d0(i32 %arg1) local_unnamed_addr {
dec_label_pc_44f0d0:
  %stack_var_-208 = alloca i32, align 4
  %tmp13 = bitcast i32* %stack_var_-208 to i8*
  call void @__asm_rep_stosd_memset(i8* %tmp13, i32 -858993460, i32 51)
  unreachable
}

define i32 @function_451b00(i32 %arg1, i32 %arg2) local_unnamed_addr {
dec_label_pc_451b00:
  %stack_var_-208 = alloca i32, align 4
  %tmp16 = bitcast i32* %stack_var_-208 to i8*
  call void @__asm_rep_stosd_memset(i8* %tmp16, i32 -858993460, i32 51)
  unreachable
}

define i32 @function_451ba0(i32 %arg1, i32 %arg2) local_unnamed_addr {
dec_label_pc_451ba0:
  %stack_var_-208 = alloca i32, align 4
  %tmp15 = bitcast i32* %stack_var_-208 to i8*
  call void @__asm_rep_stosd_memset(i8* %tmp15, i32 -858993460, i32 51)
  unreachable
}

define i32 @function_451f70(i32 %arg1, i32 %arg2) local_unnamed_addr {
dec_label_pc_451f70:
  %stack_var_-212 = alloca i32, align 4
  %tmp15 = bitcast i32* %stack_var_-212 to i8*
  call void @__asm_rep_stosd_memset(i8* %tmp15, i32 -858993460, i32 52)
  unreachable
}

define i32 @function_452010(i32 %arg1, i32 %arg2) local_unnamed_addr {
dec_label_pc_452010:
  %stack_var_-240 = alloca i32, align 4
  %stack_var_-224 = alloca i32, align 4
  %stack_var_-4 = alloca i32, align 4
  %v0_452010 = load i32, i32* @ebp, align 4
  store i32 %v0_452010, i32* %stack_var_-4, align 4
  %v4_452010 = ptrtoint i32* %stack_var_-4 to i32
  store i32 %v4_452010, i32* @ebp, align 4
  %v16_452013 = ptrtoint i32* %stack_var_-224 to i32
  %v0_45201c = load i32, i32* @ecx, align 4
  store i32 %v0_45201c, i32* %stack_var_-240, align 4
  %v4_45201c = ptrtoint i32* %stack_var_-240 to i32
  %tmp18 = bitcast i32* %stack_var_-224 to i8*
  call void @__asm_rep_stosd_memset(i8* %tmp18, i32 -858993460, i32 55)
  %v5_45202d = load i1, i1* @df, align 1
  %v7_45202d = select i1 %v5_45202d, i32 -220, i32 220
  %v8_45202d = add i32 %v7_45202d, %v16_452013
  store i32 %v8_45202d, i32* @edi, align 4
  store i32 %arg2, i32* %stack_var_-240, align 4
  store i32 %v4_45201c, i32* @esi, align 4
  store i32 %arg1, i32* @edx, align 4
  %v1_45204c = add i32 %arg1, 12
  %v2_45204c = inttoptr i32 %v1_45204c to i32*
  %v3_45204c = load i32, i32* %v2_45204c, align 4
  store i32 %v3_45204c, i32* @eax, align 4
  store i1 false, i1* @zf, align 1
  %v0_452053 = call i32 @function_4485a9()
  unreachable
}

define i32 @function_453700(i32 %arg1, i32 %arg2) local_unnamed_addr {
dec_label_pc_453700:
  %stack_var_-236 = alloca i8*, align 4
  %stack_var_-4 = alloca i32, align 4
  %v0_453700 = load i32, i32* @ebp, align 4
  store i32 %v0_453700, i32* %stack_var_-4, align 4
  %v4_453700 = ptrtoint i32* %stack_var_-4 to i32
  store i32 %v4_453700, i32* @ebp, align 4
  %tmp23 = bitcast i8** %stack_var_-236 to i8*
  call void @__asm_rep_stosd_memset(i8* %tmp23, i32 -858993460, i32 58)
  unreachable
}

define i32 @function_4537c0(i32 %arg1, i32 %arg2) local_unnamed_addr {
dec_label_pc_4537c0:
  %stack_var_-220 = alloca i32, align 4
  %stack_var_-4 = alloca i32, align 4
  %v0_4537c0 = load i32, i32* @ebp, align 4
  store i32 %v0_4537c0, i32* %stack_var_-4, align 4
  %v4_4537c0 = ptrtoint i32* %stack_var_-4 to i32
  store i32 %v4_4537c0, i32* @ebp, align 4
  %v0_4537cc = load i32, i32* @ecx, align 4
  %tmp20 = bitcast i32* %stack_var_-220 to i8*
  call void @__asm_rep_stosd_memset(i8* %tmp20, i32 -858993460, i32 54)
  store i32 %v0_4537cc, i32* @ecx, align 4
  %v3_453821 = call i32 @function_4488d3(i32 %arg1, i32 %arg2)
  store i32 1, i32* @edx, align 4
  store i32 %arg1, i32* @eax, align 4
  %v0_453838 = load i32, i32* @esp, align 4
  %v1_453838 = inttoptr i32 %v0_453838 to i32*
  %v2_453838 = load i32, i32* %v1_453838, align 4
  store i32 %v2_453838, i32* @edi, align 4
  %v3_453838 = add i32 %v0_453838, 4
  %v1_453839 = inttoptr i32 %v3_453838 to i32*
  %v2_453839 = load i32, i32* %v1_453839, align 4
  store i32 %v2_453839, i32* @esi, align 4
  %v3_453839 = add i32 %v0_453838, 8
  %v1_45383a = inttoptr i32 %v3_453839 to i32*
  %v2_45383a = load i32, i32* %v1_45383a, align 4
  store i32 %v2_45383a, i32* @ebx, align 4
  %v1_45383b = add i32 %v0_453838, 228
  %v0_453841 = load i32, i32* @ebp, align 4
  %v12_453841 = icmp eq i32 %v0_453841, %v1_45383b
  store i1 %v12_453841, i1* @zf, align 1
  %v0_453843 = call i32 @function_4485a9()
  ret i32 %v0_453843
}

define i32 @function_453880(i32 %arg1, i32 %arg2) local_unnamed_addr {
dec_label_pc_453880:
  %stack_var_-236 = alloca i8*, align 4
  %tmp23 = bitcast i8** %stack_var_-236 to i8*
  call void @__asm_rep_stosd_memset(i8* %tmp23, i32 -858993460, i32 58)
  unreachable
}

define i32 @function_4539c0() local_unnamed_addr {
dec_label_pc_4539c0:
  %stack_var_-208 = alloca i32, align 4
  %tmp12 = bitcast i32* %stack_var_-208 to i8*
  call void @__asm_rep_stosd_memset(i8* %tmp12, i32 -858993460, i32 51)
  ret i32 ptrtoint ([8 x i8]* @global_var_4dc330.598 to i32)
}

define i32 @function_453a00() local_unnamed_addr {
dec_label_pc_453a00:
  %stack_var_-208 = alloca i32, align 4
  %tmp12 = bitcast i32* %stack_var_-208 to i8*
  call void @__asm_rep_stosd_memset(i8* %tmp12, i32 -858993460, i32 51)
  ret i32 ptrtoint ([9 x i8]* @global_var_4dc370.599 to i32)
}

define i32 @function_453a40() local_unnamed_addr {
dec_label_pc_453a40:
  %stack_var_-208 = alloca i32, align 4
  %tmp12 = bitcast i32* %stack_var_-208 to i8*
  call void @__asm_rep_stosd_memset(i8* %tmp12, i32 -858993460, i32 51)
  ret i32 ptrtoint ([7 x i8]* @global_var_4dc3bc.600 to i32)
}

declare i32 @"?_Debug_message@std@@YAXPB_W0I@Z"() local_unnamed_addr

declare i32 @"??_G?$ISource@I@Concurrency@@UAEPAXI@Z"() local_unnamed_addr

declare i32 @"??_G?$ISource@I@Concurrency@@UAEPAXI@Z.12"() local_unnamed_addr

declare i32 @"??_G?$ISource@I@Concurrency@@UAEPAXI@Z.13"() local_unnamed_addr

declare i32 @"??_G?$ISource@I@Concurrency@@UAEPAXI@Z.14"() local_unnamed_addr

declare i32 @"??_G?$ISource@I@Concurrency@@UAEPAXI@Z.15"() local_unnamed_addr

declare i32 @"??_G?$ISource@I@Concurrency@@UAEPAXI@Z.16"() local_unnamed_addr

declare i32 @"??_G?$ISource@I@Concurrency@@UAEPAXI@Z.17"() local_unnamed_addr

declare i32 @"??_G?$ISource@I@Concurrency@@UAEPAXI@Z.18"() local_unnamed_addr

declare i32 @"??_G?$ISource@I@Concurrency@@UAEPAXI@Z.19"() local_unnamed_addr

define i32 @function_4701d0() local_unnamed_addr {
dec_label_pc_4701d0:
  ret i32 ptrtoint ([18 x i8]* @global_var_4df118.808 to i32)
}

define i32 @function_478030(i32 %arg1) local_unnamed_addr {
dec_label_pc_478030:
  %v0_478030 = load i1, i1* @zf, align 1
  %v1_478030 = icmp eq i1 %v0_478030, false
  br i1 %v1_478030, label %dec_label_pc_478033, label %dec_label_pc_478032

dec_label_pc_478032:                              ; preds = %dec_label_pc_478030
  %v0_478032 = load i32, i32* @eax, align 4
  ret i32 %v0_478032

dec_label_pc_478033:                              ; preds = %dec_label_pc_478030
  %v0_478033 = load i32, i32* @ebp, align 4
  %v0_478039 = load i32, i32* @eax, align 4
  %v0_47803a = load i32, i32* @edx, align 4
  %v0_47803b = load i32, i32* @ebx, align 4
  %v0_47803c = load i32, i32* @esi, align 4
  %v0_47803d = load i32, i32* @edi, align 4
  %v8_478044 = call i32 @function_448dec(i32 %arg1, i32 0, i32 %v0_47803d, i32 %v0_47803c, i32 %v0_47803b, i32 %v0_47803a, i32 %v0_478039, i32 %v0_478033)
  ret i32 %v0_478039
}

declare i32 @"??_G?$ISource@I@Concurrency@@UAEPAXI@Z.29"() local_unnamed_addr

declare i32 @"?_RTC_Failure@@YAXPAXH@Z"() local_unnamed_addr

declare i32 @"??_G?$ISource@I@Concurrency@@UAEPAXI@Z.39"() local_unnamed_addr

declare i32 @"??_G?$ISource@I@Concurrency@@UAEPAXI@Z.40"() local_unnamed_addr

declare i32 @"??_G?$ISource@I@Concurrency@@UAEPAXI@Z.41"() local_unnamed_addr

declare i32 @"??_GIThreadProxyFactory@details@Concurrency@@UAEPAXI@Z"() local_unnamed_addr

declare i32 @"?what@exception@std@@UBEPBDXZ"() local_unnamed_addr

declare i32 @"?getLastChar@DNameStatusNode@@UBEDXZ"() local_unnamed_addr

define i32 @function_4b52f0() local_unnamed_addr {
dec_label_pc_4b52f0:
  %v0_4b52f3 = load i32, i32* @ecx, align 4
  %v1_4b52fa = add i32 %v0_4b52f3, 4
  %v2_4b52fa = inttoptr i32 %v1_4b52fa to i8*
  %v3_4b52fa = load i8, i8* %v2_4b52fa, align 1
  %v4_4b52fa = zext i8 %v3_4b52fa to i32
  %v6_4b52fa = and i32 %v0_4b52f3, -256
  %v7_4b52fa = or i32 %v4_4b52fa, %v6_4b52fa
  ret i32 %v7_4b52fa
}

declare i32 @"?getLastChar@pDNameNode@@UBEDXZ"() local_unnamed_addr

declare i32 @"?getLastChar@pairNode@@UBEDXZ"() local_unnamed_addr

declare i32 @"?getLastChar@pcharNode@@UBEDXZ"() local_unnamed_addr

declare i32 @"?getString@DNameStatusNode@@UBEPADPAD0@Z"() local_unnamed_addr

declare i32 @"?getString@charNode@@UBEPADPAD0@Z"() local_unnamed_addr

declare i32 @"?getString@pDNameNode@@UBEPADPAD0@Z"() local_unnamed_addr

declare i32 @"?getString@pairNode@@UBEPADPAD0@Z"() local_unnamed_addr

declare i32 @"?getString@pcharNode@@UBEPADPAD0@Z"() local_unnamed_addr

define i32 @function_4b9d10() local_unnamed_addr {
dec_label_pc_4b9d10:
  %v0_4b9d13 = load i32, i32* @ecx, align 4
  %v1_4b9d1a = add i32 %v0_4b9d13, 8
  %v2_4b9d1a = inttoptr i32 %v1_4b9d1a to i32*
  %v3_4b9d1a = load i32, i32* %v2_4b9d1a, align 4
  ret i32 %v3_4b9d1a
}

define i32 @function_4b9d30() local_unnamed_addr {
dec_label_pc_4b9d30:
  ret i32 1
}

declare i32 @"?length@pDNameNode@@UBEHXZ"() local_unnamed_addr

declare i32 @"?length@pairNode@@UBEHXZ"() local_unnamed_addr

define i32 @function_4b9df0() local_unnamed_addr {
dec_label_pc_4b9df0:
  %v0_4b9df3 = load i32, i32* @ecx, align 4
  %v1_4b9dfa = add i32 %v0_4b9df3, 8
  %v2_4b9dfa = inttoptr i32 %v1_4b9dfa to i32*
  %v3_4b9dfa = load i32, i32* %v2_4b9dfa, align 4
  ret i32 %v3_4b9dfa
}

declare void @__asm_rep_stosd_memset(i8*, i32, i32) local_unnamed_addr

declare i32 @__decompiler_undefined_function_0() local_unnamed_addr
